{
  "last-edit": "af73ed1e-2100-47f1-bb56-f5ab4b35df42",
  "recent-items": [
    "758edcda-1375-4a5a-b98f-20b5445f9ba8",
    "612cb8ed-6c1d-48c3-83e9-5b413feb9220",
    "8bfcc502-a5c1-43d1-ad2c-ecdd246d5981",
    "af73ed1e-2100-47f1-bb56-f5ab4b35df42"
  ]
}
