{
  "__type__": "cc.SpriteFrame",
  "content": {
    "name": "tx_victory",
    "texture": "0af0df3d-0781-4065-ab44-75b8a11bd4e0",
    "atlas": "",
    "rect": [
      0,
      0,
      325,
      81
    ],
    "offset": [
      0,
      0
    ],
    "originalSize": [
      325,
      81
    ],
    "capInsets": [
      0,
      0,
      0,
      0
    ]
  }
}