{
  "__type__": "cc.SpriteFrame",
  "content": {
    "name": "17",
    "texture": "78cb87c7-bb8b-4b69-a8b0-45181da80f62",
    "atlas": "",
    "rect": [
      0,
      1,
      127,
      167
    ],
    "offset": [
      0,
      -0.5
    ],
    "originalSize": [
      127,
      168
    ],
    "capInsets": [
      0,
      0,
      0,
      0
    ]
  }
}