{
  "__type__": "cc.SpriteFrame",
  "content": {
    "name": "Skin_0000s_0000_Char_21",
    "texture": "ca58d801-67bd-4128-b733-7900056446ef",
    "atlas": "",
    "rect": [
      0,
      1,
      127,
      167
    ],
    "offset": [
      0,
      -0.5
    ],
    "originalSize": [
      127,
      168
    ],
    "capInsets": [
      0,
      0,
      0,
      0
    ]
  }
}