{
  "__type__": "cc.Model",
  "_name": "palm-big_T",
  "_objFlags": 0,
  "_native": "",
  "_nodes": [
    {
      "name": "RootNode",
      "scale": [
        1,
        1,
        1
      ],
      "children": [
        1
      ],
      "position": [
        0,
        0,
        0
      ],
      "quat": [
        0,
        0,
        0,
        1
      ],
      "path": ""
    },
    {
      "name": "palm-big",
      "scale": [
        99.9999923706055,
        99.9999923706055,
        99.9999923706055
      ],
      "mesh": 0,
      "parent": null,
      "position": [
        -25,
        0,
        10
      ],
      "quat": [
        -7.32154019079641e-15,
        1,
        -8.14603424714733e-8,
        -7.54979012640433e-8
      ],
      "path": "palm-big"
    }
  ],
  "_precomputeJointMatrix": false
}