{
  "__type__": "cc.AnimationClip",
  "_name": "Rotate",
  "_objFlags": 0,
  "_native": "",
  "_duration": 4,
  "sample": 60,
  "speed": 1,
  "wrapMode": 2,
  "curveData": {
    "props": {
      "angle": [
        {
          "frame": 0,
          "value": 0
        },
        {
          "frame": 2,
          "value": -180
        },
        {
          "frame": 4,
          "value": -360
        }
      ]
    }
  },
  "events": []
}