{
  "__type__": "cc.Material",
  "_name": "GroundWhiteVani",
  "_objFlags": 0,
  "_native": "",
  "_effectAsset": {
    "__uuid__": "abc2cb62-7852-4525-a90d-d474487b88f2"
  },
  "_techniqueIndex": 0,
  "_techniqueData": {
    "0": {
      "defines": {
        "USE_DIFFUSE_TEXTURE": true,
        "USE_EMISSIVE": true,
        "USE_EMISSIVE_TEXTURE": true
      },
      "props": {
        "emissiveColor": {
          "__type__": "cc.Color",
          "r": 255,
          "g": 255,
          "b": 255,
          "a": 255
        },
        "diffuseColor": {
          "__type__": "cc.Color",
          "r": 255,
          "g": 255,
          "b": 255,
          "a": 255
        },
        "emissiveTexture": {
          "__uuid__": "e60631b7-4dcb-4bcc-ad81-e25953f34123"
        },
        "diffuseTexture": {
          "__uuid__": "e60631b7-4dcb-4bcc-ad81-e25953f34123"
        }
      }
    }
  }
}