{
  "__type__": "cc.Skeleton",
  "_name": "",
  "_objFlags": 0,
  "_native": "",
  "_model": {
    "__uuid__": "bd37916a-02ec-4cb8-bac7-f625459f904a"
  },
  "_jointIndices": [
    2,
    10,
    17,
    21,
    3,
    9,
    6,
    4,
    22,
    8,
    12,
    20,
    18,
    7,
    14,
    16,
    5,
    13,
    11,
    19,
    15
  ],
  "_skinIndex": 0
}