{
  "__type__": "cc.SpriteFrame",
  "content": {
    "name": "254-254-max",
    "texture": "4da24d86-0005-4dca-bffd-34b7e66eced9",
    "atlas": "",
    "rect": [
      0,
      0,
      254,
      254
    ],
    "offset": [
      0,
      0
    ],
    "originalSize": [
      254,
      254
    ],
    "capInsets": [
      0,
      0,
      0,
      0
    ]
  }
}