{
    "asset": {
        "generator": "FBX2glTF v0.9.7",
        "version": "2.0"
    },
    "scene": 0,
    "buffers": [
        {
            "byteLength": 65256,
            "uri": "buffer.bin"
        }
    ],
    "bufferViews": [
        {
            "buffer": 0,
            "byteLength": 184,
            "byteOffset": 0
        },
        {
            "buffer": 0,
            "byteLength": 552,
            "byteOffset": 184
        },
        {
            "buffer": 0,
            "byteLength": 552,
            "byteOffset": 736
        },
        {
            "buffer": 0,
            "byteLength": 736,
            "byteOffset": 1288
        },
        {
            "buffer": 0,
            "byteLength": 552,
            "byteOffset": 2024
        },
        {
            "buffer": 0,
            "byteLength": 736,
            "byteOffset": 2576
        },
        {
            "buffer": 0,
            "byteLength": 552,
            "byteOffset": 3312
        },
        {
            "buffer": 0,
            "byteLength": 736,
            "byteOffset": 3864
        },
        {
            "buffer": 0,
            "byteLength": 552,
            "byteOffset": 4600
        },
        {
            "buffer": 0,
            "byteLength": 552,
            "byteOffset": 5152
        },
        {
            "buffer": 0,
            "byteLength": 736,
            "byteOffset": 5704
        },
        {
            "buffer": 0,
            "byteLength": 552,
            "byteOffset": 6440
        },
        {
            "buffer": 0,
            "byteLength": 736,
            "byteOffset": 6992
        },
        {
            "buffer": 0,
            "byteLength": 552,
            "byteOffset": 7728
        },
        {
            "buffer": 0,
            "byteLength": 736,
            "byteOffset": 8280
        },
        {
            "buffer": 0,
            "byteLength": 552,
            "byteOffset": 9016
        },
        {
            "buffer": 0,
            "byteLength": 736,
            "byteOffset": 9568
        },
        {
            "buffer": 0,
            "byteLength": 552,
            "byteOffset": 10304
        },
        {
            "buffer": 0,
            "byteLength": 736,
            "byteOffset": 10856
        },
        {
            "buffer": 0,
            "byteLength": 552,
            "byteOffset": 11592
        },
        {
            "buffer": 0,
            "byteLength": 736,
            "byteOffset": 12144
        },
        {
            "buffer": 0,
            "byteLength": 552,
            "byteOffset": 12880
        },
        {
            "buffer": 0,
            "byteLength": 736,
            "byteOffset": 13432
        },
        {
            "buffer": 0,
            "byteLength": 552,
            "byteOffset": 14168
        },
        {
            "buffer": 0,
            "byteLength": 736,
            "byteOffset": 14720
        },
        {
            "buffer": 0,
            "byteLength": 552,
            "byteOffset": 15456
        },
        {
            "buffer": 0,
            "byteLength": 736,
            "byteOffset": 16008
        },
        {
            "buffer": 0,
            "byteLength": 552,
            "byteOffset": 16744
        },
        {
            "buffer": 0,
            "byteLength": 736,
            "byteOffset": 17296
        },
        {
            "buffer": 0,
            "byteLength": 552,
            "byteOffset": 18032
        },
        {
            "buffer": 0,
            "byteLength": 736,
            "byteOffset": 18584
        },
        {
            "buffer": 0,
            "byteLength": 3600,
            "byteOffset": 19320,
            "target": 34963
        },
        {
            "buffer": 0,
            "byteLength": 8880,
            "byteOffset": 22920,
            "target": 34962
        },
        {
            "buffer": 0,
            "byteLength": 8880,
            "byteOffset": 31800,
            "target": 34962
        },
        {
            "buffer": 0,
            "byteLength": 5920,
            "byteOffset": 40680,
            "target": 34962
        },
        {
            "buffer": 0,
            "byteLength": 5920,
            "byteOffset": 46600,
            "target": 34962
        },
        {
            "buffer": 0,
            "byteLength": 11840,
            "byteOffset": 52520,
            "target": 34962
        },
        {
            "buffer": 0,
            "byteLength": 896,
            "byteOffset": 64360
        }
    ],
    "scenes": [
        {
            "name": "Root Scene",
            "nodes": [
                0
            ]
        }
    ],
    "accessors": [
        {
            "componentType": 5126,
            "type": "SCALAR",
            "count": 46,
            "bufferView": 0,
            "byteOffset": 0,
            "min": [
                0.0
            ],
            "max": [
                1.875
            ]
        },
        {
            "componentType": 5126,
            "type": "VEC3",
            "count": 46,
            "bufferView": 1,
            "byteOffset": 0
        },
        {
            "componentType": 5126,
            "type": "VEC3",
            "count": 46,
            "bufferView": 2,
            "byteOffset": 0
        },
        {
            "componentType": 5126,
            "type": "VEC4",
            "count": 46,
            "bufferView": 3,
            "byteOffset": 0
        },
        {
            "componentType": 5126,
            "type": "VEC3",
            "count": 46,
            "bufferView": 4,
            "byteOffset": 0
        },
        {
            "componentType": 5126,
            "type": "VEC4",
            "count": 46,
            "bufferView": 5,
            "byteOffset": 0
        },
        {
            "componentType": 5126,
            "type": "VEC3",
            "count": 46,
            "bufferView": 6,
            "byteOffset": 0
        },
        {
            "componentType": 5126,
            "type": "VEC4",
            "count": 46,
            "bufferView": 7,
            "byteOffset": 0
        },
        {
            "componentType": 5126,
            "type": "VEC3",
            "count": 46,
            "bufferView": 8,
            "byteOffset": 0
        },
        {
            "componentType": 5126,
            "type": "VEC3",
            "count": 46,
            "bufferView": 9,
            "byteOffset": 0
        },
        {
            "componentType": 5126,
            "type": "VEC4",
            "count": 46,
            "bufferView": 10,
            "byteOffset": 0
        },
        {
            "componentType": 5126,
            "type": "VEC3",
            "count": 46,
            "bufferView": 11,
            "byteOffset": 0
        },
        {
            "componentType": 5126,
            "type": "VEC4",
            "count": 46,
            "bufferView": 12,
            "byteOffset": 0
        },
        {
            "componentType": 5126,
            "type": "VEC3",
            "count": 46,
            "bufferView": 13,
            "byteOffset": 0
        },
        {
            "componentType": 5126,
            "type": "VEC4",
            "count": 46,
            "bufferView": 14,
            "byteOffset": 0
        },
        {
            "componentType": 5126,
            "type": "VEC3",
            "count": 46,
            "bufferView": 15,
            "byteOffset": 0
        },
        {
            "componentType": 5126,
            "type": "VEC4",
            "count": 46,
            "bufferView": 16,
            "byteOffset": 0
        },
        {
            "componentType": 5126,
            "type": "VEC3",
            "count": 46,
            "bufferView": 17,
            "byteOffset": 0
        },
        {
            "componentType": 5126,
            "type": "VEC4",
            "count": 46,
            "bufferView": 18,
            "byteOffset": 0
        },
        {
            "componentType": 5126,
            "type": "VEC3",
            "count": 46,
            "bufferView": 19,
            "byteOffset": 0
        },
        {
            "componentType": 5126,
            "type": "VEC4",
            "count": 46,
            "bufferView": 20,
            "byteOffset": 0
        },
        {
            "componentType": 5126,
            "type": "VEC3",
            "count": 46,
            "bufferView": 21,
            "byteOffset": 0
        },
        {
            "componentType": 5126,
            "type": "VEC4",
            "count": 46,
            "bufferView": 22,
            "byteOffset": 0
        },
        {
            "componentType": 5126,
            "type": "VEC3",
            "count": 46,
            "bufferView": 23,
            "byteOffset": 0
        },
        {
            "componentType": 5126,
            "type": "VEC4",
            "count": 46,
            "bufferView": 24,
            "byteOffset": 0
        },
        {
            "componentType": 5126,
            "type": "VEC3",
            "count": 46,
            "bufferView": 25,
            "byteOffset": 0
        },
        {
            "componentType": 5126,
            "type": "VEC4",
            "count": 46,
            "bufferView": 26,
            "byteOffset": 0
        },
        {
            "componentType": 5126,
            "type": "VEC3",
            "count": 46,
            "bufferView": 27,
            "byteOffset": 0
        },
        {
            "componentType": 5126,
            "type": "VEC4",
            "count": 46,
            "bufferView": 28,
            "byteOffset": 0
        },
        {
            "componentType": 5126,
            "type": "VEC3",
            "count": 46,
            "bufferView": 29,
            "byteOffset": 0
        },
        {
            "componentType": 5126,
            "type": "VEC4",
            "count": 46,
            "bufferView": 30,
            "byteOffset": 0
        },
        {
            "componentType": 5123,
            "type": "SCALAR",
            "count": 1800,
            "bufferView": 31,
            "byteOffset": 0
        },
        {
            "componentType": 5126,
            "type": "VEC3",
            "count": 740,
            "bufferView": 32,
            "byteOffset": 0,
            "min": [
                -0.0123315127566457,
                -0.0117279654368758,
                1.73276475834427e-05
            ],
            "max": [
                0.0123315136879683,
                0.0117279682308435,
                0.0187326800078154
            ]
        },
        {
            "componentType": 5126,
            "type": "VEC3",
            "count": 740,
            "bufferView": 33,
            "byteOffset": 0
        },
        {
            "componentType": 5126,
            "type": "VEC2",
            "count": 740,
            "bufferView": 34,
            "byteOffset": 0
        },
        {
            "componentType": 5123,
            "type": "VEC4",
            "count": 740,
            "bufferView": 35,
            "byteOffset": 0
        },
        {
            "componentType": 5126,
            "type": "VEC4",
            "count": 740,
            "bufferView": 36,
            "byteOffset": 0
        },
        {
            "componentType": 5126,
            "type": "MAT4",
            "count": 14,
            "bufferView": 37,
            "byteOffset": 0
        }
    ],
    "images": [
        {
            "name": "Map #7",
            "uri": "data:image/png;base64,iVBORw0KGgoAAAANSUhEUgAAAAEAAAABCAYAAAAfFcSJAAAADUlEQVR42mP8/5+hHgAHggJ/PchI7wAAAABJRU5ErkJggg=="
        }
    ],
    "samplers": [
        {}
    ],
    "textures": [
        {
            "name": "Map #7",
            "sampler": 0,
            "source": 0
        }
    ],
    "materials": [
        {
            "name": "Material #68",
            "alphaMode": "OPAQUE",
            "extras": {
                "fromFBX": {
                    "shadingModel": "Phong",
                    "isTruePBR": false
                }
            },
            "pbrMetallicRoughness": {
                "baseColorTexture": {
                    "index": 0,
                    "texCoord": 0
                },
                "baseColorFactor": [
                    1.0,
                    1.0,
                    1.0,
                    1.0
                ],
                "metallicFactor": 0.400000005960464,
                "roughnessFactor": 0.70710676908493
            }
        }
    ],
    "meshes": [
        {
            "name": "prop_barrel_model",
            "primitives": [
                {
                    "material": 0,
                    "mode": 4,
                    "attributes": {
                        "JOINTS_0": 35,
                        "NORMAL": 33,
                        "POSITION": 32,
                        "TEXCOORD_0": 34,
                        "WEIGHTS_0": 36
                    },
                    "indices": 31
                }
            ]
        }
    ],
    "skins": [
        {
            "joints": [
                7,
                4,
                8,
                12,
                9,
                11,
                14,
                16,
                6,
                15,
                13,
                10,
                5,
                3
            ],
            "inverseBindMatrices": 37,
            "skeleton": 7
        }
    ],
    "animations": [
        {
            "name": "Take 001",
            "channels": [
                {
                    "sampler": 0,
                    "target": {
                        "node": 2,
                        "path": "translation"
                    }
                },
                {
                    "sampler": 1,
                    "target": {
                        "node": 3,
                        "path": "translation"
                    }
                },
                {
                    "sampler": 2,
                    "target": {
                        "node": 3,
                        "path": "rotation"
                    }
                },
                {
                    "sampler": 3,
                    "target": {
                        "node": 4,
                        "path": "translation"
                    }
                },
                {
                    "sampler": 4,
                    "target": {
                        "node": 4,
                        "path": "rotation"
                    }
                },
                {
                    "sampler": 5,
                    "target": {
                        "node": 5,
                        "path": "translation"
                    }
                },
                {
                    "sampler": 6,
                    "target": {
                        "node": 5,
                        "path": "rotation"
                    }
                },
                {
                    "sampler": 7,
                    "target": {
                        "node": 5,
                        "path": "scale"
                    }
                },
                {
                    "sampler": 8,
                    "target": {
                        "node": 6,
                        "path": "translation"
                    }
                },
                {
                    "sampler": 9,
                    "target": {
                        "node": 6,
                        "path": "rotation"
                    }
                },
                {
                    "sampler": 10,
                    "target": {
                        "node": 7,
                        "path": "translation"
                    }
                },
                {
                    "sampler": 11,
                    "target": {
                        "node": 7,
                        "path": "rotation"
                    }
                },
                {
                    "sampler": 12,
                    "target": {
                        "node": 8,
                        "path": "translation"
                    }
                },
                {
                    "sampler": 13,
                    "target": {
                        "node": 8,
                        "path": "rotation"
                    }
                },
                {
                    "sampler": 14,
                    "target": {
                        "node": 9,
                        "path": "translation"
                    }
                },
                {
                    "sampler": 15,
                    "target": {
                        "node": 9,
                        "path": "rotation"
                    }
                },
                {
                    "sampler": 16,
                    "target": {
                        "node": 10,
                        "path": "translation"
                    }
                },
                {
                    "sampler": 17,
                    "target": {
                        "node": 10,
                        "path": "rotation"
                    }
                },
                {
                    "sampler": 18,
                    "target": {
                        "node": 11,
                        "path": "translation"
                    }
                },
                {
                    "sampler": 19,
                    "target": {
                        "node": 11,
                        "path": "rotation"
                    }
                },
                {
                    "sampler": 20,
                    "target": {
                        "node": 12,
                        "path": "translation"
                    }
                },
                {
                    "sampler": 21,
                    "target": {
                        "node": 12,
                        "path": "rotation"
                    }
                },
                {
                    "sampler": 22,
                    "target": {
                        "node": 13,
                        "path": "translation"
                    }
                },
                {
                    "sampler": 23,
                    "target": {
                        "node": 13,
                        "path": "rotation"
                    }
                },
                {
                    "sampler": 24,
                    "target": {
                        "node": 14,
                        "path": "translation"
                    }
                },
                {
                    "sampler": 25,
                    "target": {
                        "node": 14,
                        "path": "rotation"
                    }
                },
                {
                    "sampler": 26,
                    "target": {
                        "node": 15,
                        "path": "translation"
                    }
                },
                {
                    "sampler": 27,
                    "target": {
                        "node": 15,
                        "path": "rotation"
                    }
                },
                {
                    "sampler": 28,
                    "target": {
                        "node": 16,
                        "path": "translation"
                    }
                },
                {
                    "sampler": 29,
                    "target": {
                        "node": 16,
                        "path": "rotation"
                    }
                }
            ],
            "samplers": [
                {
                    "input": 0,
                    "interpolation": "LINEAR",
                    "output": 1
                },
                {
                    "input": 0,
                    "interpolation": "LINEAR",
                    "output": 2
                },
                {
                    "input": 0,
                    "interpolation": "LINEAR",
                    "output": 3
                },
                {
                    "input": 0,
                    "interpolation": "LINEAR",
                    "output": 4
                },
                {
                    "input": 0,
                    "interpolation": "LINEAR",
                    "output": 5
                },
                {
                    "input": 0,
                    "interpolation": "LINEAR",
                    "output": 6
                },
                {
                    "input": 0,
                    "interpolation": "LINEAR",
                    "output": 7
                },
                {
                    "input": 0,
                    "interpolation": "LINEAR",
                    "output": 8
                },
                {
                    "input": 0,
                    "interpolation": "LINEAR",
                    "output": 9
                },
                {
                    "input": 0,
                    "interpolation": "LINEAR",
                    "output": 10
                },
                {
                    "input": 0,
                    "interpolation": "LINEAR",
                    "output": 11
                },
                {
                    "input": 0,
                    "interpolation": "LINEAR",
                    "output": 12
                },
                {
                    "input": 0,
                    "interpolation": "LINEAR",
                    "output": 13
                },
                {
                    "input": 0,
                    "interpolation": "LINEAR",
                    "output": 14
                },
                {
                    "input": 0,
                    "interpolation": "LINEAR",
                    "output": 15
                },
                {
                    "input": 0,
                    "interpolation": "LINEAR",
                    "output": 16
                },
                {
                    "input": 0,
                    "interpolation": "LINEAR",
                    "output": 17
                },
                {
                    "input": 0,
                    "interpolation": "LINEAR",
                    "output": 18
                },
                {
                    "input": 0,
                    "interpolation": "LINEAR",
                    "output": 19
                },
                {
                    "input": 0,
                    "interpolation": "LINEAR",
                    "output": 20
                },
                {
                    "input": 0,
                    "interpolation": "LINEAR",
                    "output": 21
                },
                {
                    "input": 0,
                    "interpolation": "LINEAR",
                    "output": 22
                },
                {
                    "input": 0,
                    "interpolation": "LINEAR",
                    "output": 23
                },
                {
                    "input": 0,
                    "interpolation": "LINEAR",
                    "output": 24
                },
                {
                    "input": 0,
                    "interpolation": "LINEAR",
                    "output": 25
                },
                {
                    "input": 0,
                    "interpolation": "LINEAR",
                    "output": 26
                },
                {
                    "input": 0,
                    "interpolation": "LINEAR",
                    "output": 27
                },
                {
                    "input": 0,
                    "interpolation": "LINEAR",
                    "output": 28
                },
                {
                    "input": 0,
                    "interpolation": "LINEAR",
                    "output": 29
                },
                {
                    "input": 0,
                    "interpolation": "LINEAR",
                    "output": 30
                }
            ]
        }
    ],
    "nodes": [
        {
            "name": "RootNode",
            "translation": [
                0.0,
                0.0,
                0.0
            ],
            "rotation": [
                0.0,
                0.0,
                0.0,
                1.0
            ],
            "scale": [
                1.0,
                1.0,
                1.0
            ],
            "children": [
                1,
                2
            ]
        },
        {
            "name": "prop_barrel_model",
            "translation": [
                0.0,
                0.0,
                0.0
            ],
            "rotation": [
                2.1855694143369e-08,
                0.0,
                0.0,
                1.0
            ],
            "scale": [
                1.0,
                1.0,
                1.0
            ],
            "mesh": 0,
            "skin": 0
        },
        {
            "name": "Point005",
            "translation": [
                0.0,
                -6.07661877438659e-06,
                0.0
            ],
            "rotation": [
                -0.706983923912048,
                -0.00257849367335439,
                -0.00281295692548156,
                0.707219302654266
            ],
            "scale": [
                1.0,
                1.0,
                1.0
            ],
            "children": [
                3,
                4,
                5,
                6,
                7,
                8,
                9,
                10,
                11,
                12,
                13,
                14,
                15,
                16
            ]
        },
        {
            "name": "Point001",
            "translation": [
                -2.02372230084791e-09,
                2.16412243680963e-09,
                6.07661831963924e-06
            ],
            "rotation": [
                -0.000166500336490571,
                -0.000165860023116693,
                0.00381233170628548,
                0.999992728233337
            ],
            "scale": [
                1.0,
                1.0,
                1.0
            ]
        },
        {
            "name": "Bone009",
            "translation": [
                -0.0089051416143775,
                -0.00286654685623944,
                -9.56950025283732e-05
            ],
            "rotation": [
                -0.40335151553154,
                -0.580606400966644,
                -0.403380423784256,
                0.580937147140503
            ],
            "scale": [
                0.999999940395355,
                0.99999988079071,
                0.999999940395355
            ]
        },
        {
            "name": "Point004",
            "translation": [
                -2.22210996980721e-06,
                2.21389200305566e-06,
                0.00667325826361775
            ],
            "rotation": [
                -0.000166500351042487,
                -0.000165860037668608,
                0.00381233217194676,
                0.999992728233337
            ],
            "scale": [
                0.999999940395355,
                0.99999988079071,
                0.999999940395355
            ]
        },
        {
            "name": "Bone007",
            "translation": [
                -0.00580483581870794,
                0.00747207924723625,
                -9.80920958681963e-05
            ],
            "rotation": [
                0.628539204597473,
                -0.324281960725784,
                0.628314912319183,
                0.324037194252014
            ],
            "scale": [
                1.0,
                1.00000011920929,
                1.00000011920929
            ]
        },
        {
            "name": "Bone008",
            "translation": [
                -0.00904175546020269,
                0.00278872414492071,
                -9.76164374151267e-05
            ],
            "rotation": [
                0.577638626098633,
                0.407663941383362,
                0.577653110027313,
                -0.407995879650116
            ],
            "scale": [
                1.0,
                0.999999940395355,
                1.0
            ]
        },
        {
            "name": "Bone010",
            "translation": [
                -0.00572276301681995,
                -0.00755325378850102,
                -9.30806127144024e-05
            ],
            "rotation": [
                -0.210082396864891,
                -0.675008177757263,
                -0.21011133491993,
                0.675338864326477
            ],
            "scale": [
                1.0,
                0.999999761581421,
                0.999999940395355
            ]
        },
        {
            "name": "Point002",
            "translation": [
                -6.95130574968061e-06,
                6.92528328727349e-06,
                0.0208755936473608
            ],
            "rotation": [
                -0.000166500351042487,
                -0.000165860037668608,
                0.00381233217194676,
                0.999992728233337
            ],
            "scale": [
                0.999999940395355,
                0.99999988079071,
                0.999999940395355
            ]
        },
        {
            "name": "Point003",
            "translation": [
                -5.50459526493796e-06,
                5.4840193115524e-06,
                0.0165309514850378
            ],
            "rotation": [
                -0.000166500351042487,
                -0.000165860037668608,
                0.00381233217194676,
                0.999992728233337
            ],
            "scale": [
                0.999999940395355,
                0.99999988079071,
                0.999999940395355
            ]
        },
        {
            "name": "Bone004",
            "translation": [
                0.00914742890745401,
                0.00252591539174318,
                -9.14722477318719e-05
            ],
            "rotation": [
                -0.403471738100052,
                -0.580806374549866,
                -0.403139799833298,
                0.580820858478546
            ],
            "scale": [
                1.0,
                0.99999988079071,
                0.99999988079071
            ]
        },
        {
            "name": "Bone003",
            "translation": [
                0.0089419623836875,
                -0.00317762815393507,
                -8.96486162673682e-05
            ],
            "rotation": [
                0.704771518707275,
                -0.0588548853993416,
                0.70451694726944,
                0.0590684562921524
            ],
            "scale": [
                0.999999940395355,
                0.99999988079071,
                0.99999988079071
            ]
        },
        {
            "name": "Bone002",
            "translation": [
                0.0055022370070219,
                -0.00773184839636087,
                -8.92832104000263e-05
            ],
            "rotation": [
                0.642119228839874,
                -0.296266168355942,
                0.641874253749847,
                0.296490639448166
            ],
            "scale": [
                1.0,
                0.999999761581421,
                0.999999701976776
            ]
        },
        {
            "name": "Bone005",
            "translation": [
                0.00604431796818972,
                0.00731583265587687,
                -9.40945319598541e-05
            ],
            "rotation": [
                -0.210186690092087,
                -0.675189971923828,
                -0.209854751825333,
                0.675204455852509
            ],
            "scale": [
                1.0,
                0.999999940395355,
                1.0
            ]
        },
        {
            "name": "Bone001",
            "translation": [
                7.23862613085657e-05,
                -0.00948949996381998,
                -9.05082197277807e-05
            ],
            "rotation": [
                0.502041876316071,
                -0.49795064330101,
                0.501806974411011,
                0.498185575008392
            ],
            "scale": [
                0.999999940395355,
                0.99999988079071,
                0.999999940395355
            ]
        },
        {
            "name": "Bone006",
            "translation": [
                -7.20485259080306e-05,
                0.00945332739502192,
                -9.68402819125913e-05
            ],
            "rotation": [
                0.501821637153625,
                -0.497935801744461,
                0.502046406269073,
                0.498181074857712
            ],
            "scale": [
                0.999999940395355,
                0.999999821186066,
                0.99999988079071
            ]
        }
    ]
}