{
  "__type__": "cc.Skeleton",
  "_name": "",
  "_objFlags": 0,
  "_native": "",
  "_model": {
    "__uuid__": "79d2fe80-66d7-4684-88fa-a1b21a9e6764"
  },
  "_jointIndices": [
    17,
    14,
    15,
    20,
    19,
    18,
    22,
    21,
    16,
    6,
    1,
    3,
    2,
    5,
    4,
    10,
    9,
    11,
    7,
    8
  ],
  "_skinIndex": 0
}